{
  "name": "YYModel",
  "summary": "framework_summary",
  "version": "1.0.4",
  "license": {
    "type": "MIT"
  },
  "authors": {
    "ibireme": "ibireme@gmail.com"
  },
  "social_media_url": "http://blog.ibireme.com",
  "homepage": "https://github.com/ibireme/YYCache",
  "platforms": {
    "ios": "6.0"
  },
  "source": {
    "git": "git@gitee.com:volcengine/Mars_test_Cache.git",
    "commit": "8aeee65edc8a8d4d06d852e1c8ad1e57eba8c0ed"
  },
  "requires_arc": true,
  "source_files": "YYCache/*.{h,m}",
  "public_header_files": "YYCache/*.{h}",
  "libraries": "sqlite3",
  "frameworks": [
    "UIKit",
    "CoreFoundation",
    "QuartzCore"
  ],
  "_bytebus_platform": {
    "repo_id": "112",
    "app_id": "9999"
  },
  "repo_id": "112",
  "description": "framework_description"
}