{
  "public_header_files": "YYCache/*.{h}",
  "platforms": {
    "ios": "8.0"
  },
  "_bytebus_platform": {
    "repo_id": "115",
    "app_id": "9999"
  },
  "repo_id": "115",
  "frameworks": [
    "UIKit",
    "CoreFoundation",
    "QuartzCore"
  ],
  "libraries": "sqlite3",
  "source": {
    "http": "https://mars-devops.tos-cn-beijing.volces.com/9999/YYModel/1.0.2.1-binary/YYModel.framework.tar.xz/cead2903262b16336bc87d9fa6b23581/YYModel.framework.tar.xz"
  },
  "version": "1.0.2.1-binary",
  "source_files": [
    "YYCache/*.{h,m}",
    "YYModel-bitdummy.m"
  ],
  "social_media_url": "http://blog.ibireme.com",
  "homepage": "https://github.com/ibireme/YYCache",
  "prepare_command": "",
  "description": "framework_description",
  "ios": {
    "frameworks": [
      "UIKit",
      "CoreFoundation",
      "QuartzCore",
      "Foundation",
      "JavaScriptCore"
    ],
    "vendored_libraries": "ios-arch-iphone/*_YYModel_*awesome_*.a"
  },
  "authors": {
    "ibireme": "ibireme@gmail.com"
  },
  "build_type": "system",
  "name": "YYModel",
  "license": {
    "type": "MIT"
  },
  "build_file_count": 5,
  "preserve_paths": [
    "**/*.bwp"
  ],
  "summary": "framework_summary",
  "requires_arc": true
}